{
    "Skills": [
        {
            "title": "Scientifique",
            "items": [
                {
                    "title": "Ecologie",
                    "description": "Connaissances théoriques en biologie, climatologie, cycles biogéochimiques, dynamique des populations, écologie forestière, génétique, phylogénie, socio-écosystème forestier et sylviculture."
                },
                {
                    "title": "Protocole",
                    "description": "À l’aise avec la mise en place d’un protocole d’échantillonnage ou de mesure."
                },
                {
                    "title": "Terrain",
                    "description": "Préparation (protocole, fiches terrains, itinéraire) et réalisation (mesures, déplacements)."
                },
                {
                    "title": "Analyse de données",
                    "description": "À l’aise avec les explorations de données, analyses uni- et multivariées, modèles linéaires, manipulation de données spatiales."
                },
                {
                    "title": "Mesures déjà réalisées",
                    "description": [
                        {
                            "title": "Forêt",
                            "description": "Reconnaissance essence, carottage, surface terrière, DBH, dendromicrohabitats, hauteur et distances (télémètre vertex), volume de bois mort debout et au sol."
                        },
                        {
                            "title": "Observatoire Agricole de la Biodiversité",
                            "description": "Papillons, vers de terre, abeilles solitaires, invertébrés terrestres."
                        }
                    ]
                }
            ]
        },
        {
            "title": "Communication",
            "items": [
                {
                    "title": "Présentation orale",
                    "description": "Bonne oratrice et diapos pédagogiques."
                },
                {
                    "title": "Qualité relationnelle",
                    "description": "Sens du contact et de l’écoute."
                },
                {
                    "title": "Rédaction",
                    "description": "Bonne capacité synthétique."
                }
            ]
        },
        {
            "title": "Informatique",
            "items": [
                {
                    "title": "R",
                    "description": "Utilisatrice depuis 2016, intérêt pour les scripts simples, efficaces et reproducitbles."
                },
                {
                    "title": "ArcGIS/QGIS",
                    "description": "Utilisatrice depuis 2016."
                },
                {
                    "title": "Git/Vim/LaTeX",
                    "description": "Novice."
                }
            ]
        },
        {
            "title": "Compétences complémentaires",
            "items": [
                {
                    "title": "Façon de travailler",
                    "description": "Sens de l'organisation, rigueur, sens critique, esprit d'analyse de synthèse, travail autonome et en équipe"
                },
                {
                    "title": "Anglais",
                    "description": "Bonne compétence écrite et orale"
                },
                {
                    "title": "Permis B",
                    "description": "Depuis 2013"
                }
            ]
        }
    ],
    "Cursus": [
        {
            "title": "Thèse",
            "dates": [
                "2020-Today"
            ],
            "description": "Conception de solutions de traitement des eaux de ruissellement basées sur l'utilisation de plantes halophiles.",
            "places": [
                "CEREMA Est - Nancy"
            ],
            "persons": [
                "Ivana DURICKOVIC",
                "Guillaume ESCHEVARRIA",
                "Didier TRECHER"
            ]
        },
        {
            "title": "Service civique",
            "dates": [
                "2019-2020"
            ],
            "description": "Communication (mailchimp, wordpress, wix). Animation (animation de groupe et cours d’écologie). Terrain (protocoles OAB et arbres remarquables). Rédaction (atlas des mammifères de Rhône-Alpes).",
            "places": [
                "FNE Isère"
            ],
            "persons": [
                "Marion HERBIN-SANZ"
            ]
        },
        {
            "title": "Stage de 4 mois",
            "dates": [
                "2019"
            ],
            "description": "Génétique du paysage (papillons de tourbières).",
            "places": [
                "LECA, Grenoble"
            ],
            "persons": [
                "Laurence DESPRÈS"
            ]
        },
        {
            "title": "Master 2 GEOIDES",
            "dates": [
                "2018-2019"
            ],
            "description": "Géographie et Environnement",
            "places": [
                "UGA, Grenoble"
            ],
            "persons": [
                "Sylvain BIGOT"
            ]
        },
        {
            "title": "Stage de 6 mois",
            "dates": [
                "2018"
            ],
            "description": "Caractéristiques des arbres à cavité de pic noir",
            "places": [
                "IRSTEA, Nogent-sur-Vernisson"
            ],
            "persons": [
                "Yoan PAILLET"
            ]
        },
        {
            "title": "Master 2 FEN",
            "dates": [
                "2017-2018"
            ],
            "description": "Forest and Environment",
            "places": [
                "AgroParisTech, Nancy"
            ],
            "persons": [
                "Daniel EPRON"
            ]
        },
        {
            "title": "Stage de 2 mois",
            "dates": [
                "2017"
            ],
            "description": "Impact du bois mort sur les propriétés du sol.",
            "places": [
                "Université de Freiburg"
            ],
            "persons": [
                "Kenton Stutz"
            ]
        },
        {
            "title": "Master 1 EFCE",
            "dates": [
                "2016-2017"
            ],
            "description": "Sciences de la Vie, de la Terre et de l'Environnement",
            "places": [
                "Université de Rennes"
            ],
            "persons": [
                "Denis POINSOT"
            ]
        },
        {
            "title": "Licence SVTE",
            "dates": [
                "2014-2016",
                "2013-2014"
            ],
            "description": "Sciences de la Vie, de la Terre et de l'Environnement",
            "places": [
                "Université de Versailles",
                "Université de Dijon"
            ],
            "persons": [
                "Florence GARNIER",
                "Loïc BOLLACHE"
            ]
        }
    ]
}
