{
    "content": [
        {
            "title": "Now",
            "content": "Every winter, we spread vast amounts of salt on roads to ensure car safety. Wind and rain are moving this component, which can stagnate in the soil or flow in the rainwater / runoff. In either case, salt can be considered as a pollutant, as it is toxic for a lot of living organisms. Because it is still the most efficient, cheap, and natural way to deal with ice, we need to find a solution to reduce its negative impact on ecosystems. Phytoremediation is a cost effective and environmental friendly solution. Here I am, searching for halophytes that can extract salt from the soil, and store it in their aerial parts. This process of phytoextraction can work if we use efficient species (or species assembly) and a suitable management (harvest / scythe). After three years of experiments (2020-2023), I hope to suggest a road runoff treatment solution based on two targets : terrestrial halophytes along the roads and aquatic halophytes in retention basins."
        }
    ],
    "publications": [
        {
            "title": "This is my spot: What are the characteristics of the trees excavated by the Black Woodpecker? A case study in two managed French forests",
            "year": "2019",
            "authors": [
                "Puverel, C.",
                "Abourachid, A.",
                "Böhmer, C.",
                "Leban, J. M.",
                "Svoboda, M.",
                "Paillet, Y."
            ],
            "volume": 453,
            "pages": 117621,
            "url": "https://doi.org/10.1016/j.foreco.2019.117621",
            "citation": "Puverel, C., Abourachid, A., Böhmer, C., Leban, J. M., Svoboda, M., & Paillet, Y. (2019). This is my spot: What are the characteristics of the trees excavated by the Black Woodpecker? A case study in two managed French forests. Forest Ecology and Management, 453, 117621.",
            "file": "puverel2019.pdf"
        }
    ]
}
